a_cp #first variable name
b_cp #second variable name
c_cp #third variable name
d_cp #fourth variable name
e_cp #fifth variable name
f1_cp #sixth variable name
f2_cp #sixth variable name
g_cp #seventh variable name
h_cp #eighth variable name